<svg xmlns="http://www.w3.org/2000/svg" width="21.103" height="18.155" viewBox="0 0 21.103 18.155">
  <path id="Icon_material-arrow_back" data-name="Icon material-arrow_back" d="M27.1,13.943H11.052L18.425,7.6,16.552,6,6,15.078l10.552,9.078,1.86-1.6-7.36-6.343H27.1Z" transform="translate(-6 -6)" fill="#023047"/>
</svg>
