<svg xmlns="http://www.w3.org/2000/svg" width="154.645" height="34" viewBox="0 0 154.645 34">
  <g id="Group_10403" data-name="Group 10403" transform="translate(-19 -19)">
    <path id="Path_37882" data-name="Path 37882" d="M9.041-13.757A3.547,3.547,0,0,0,6-12.281,6.871,6.871,0,0,0,4.919-8.165q0,5.492,4.122,5.492a13.029,13.029,0,0,0,4.189-.865v2.92A11.633,11.633,0,0,1,8.715.225a6.885,6.885,0,0,1-5.48-2.173,9.2,9.2,0,0,1-1.9-6.239,10.187,10.187,0,0,1,.932-4.487,6.737,6.737,0,0,1,2.678-2.954,7.924,7.924,0,0,1,4.094-1.028A11.048,11.048,0,0,1,13.847-15.5l-1.123,2.83a18.59,18.59,0,0,0-1.853-.764A5.528,5.528,0,0,0,9.041-13.757ZM19.182-6.3a5.27,5.27,0,0,0,.612,2.819,2.189,2.189,0,0,0,1.993.955,2.154,2.154,0,0,0,1.971-.949,5.345,5.345,0,0,0,.6-2.824,5.186,5.186,0,0,0-.606-2.8,2.193,2.193,0,0,0-1.988-.932,2.186,2.186,0,0,0-1.977.927A5.182,5.182,0,0,0,19.182-6.3Zm8.681,0a6.747,6.747,0,0,1-1.617,4.8,5.864,5.864,0,0,1-4.5,1.729,6.3,6.3,0,0,1-3.189-.792A5.268,5.268,0,0,1,16.43-2.841,7.642,7.642,0,0,1,15.689-6.3a6.71,6.71,0,0,1,1.606-4.784,5.9,5.9,0,0,1,4.515-1.707A6.335,6.335,0,0,1,25-12.005a5.247,5.247,0,0,1,2.123,2.257A7.571,7.571,0,0,1,27.863-6.3ZM34.668.225a4.078,4.078,0,0,1-3.476-1.718,7.9,7.9,0,0,1-1.263-4.762,7.907,7.907,0,0,1,1.286-4.812,4.176,4.176,0,0,1,3.543-1.724,4.1,4.1,0,0,1,3.616,1.842h.112a14,14,0,0,1-.258-2.5v-4.021h3.437V0H39.037l-.663-1.628h-.146A3.92,3.92,0,0,1,34.668.225ZM35.87-2.5A2.321,2.321,0,0,0,37.8-3.268a4.442,4.442,0,0,0,.668-2.594v-.371a5.134,5.134,0,0,0-.623-2.9,2.315,2.315,0,0,0-2.027-.876,2.011,2.011,0,0,0-1.78.971A5.183,5.183,0,0,0,33.4-6.21a4.912,4.912,0,0,0,.64,2.78A2.091,2.091,0,0,0,35.87-2.5Zm14.577-7.85a2.173,2.173,0,0,0-1.707.691,3.2,3.2,0,0,0-.708,1.96h4.807a2.855,2.855,0,0,0-.663-1.96A2.243,2.243,0,0,0,50.447-10.354ZM50.93.225a6.48,6.48,0,0,1-4.739-1.673,6.336,6.336,0,0,1-1.707-4.739,6.969,6.969,0,0,1,1.578-4.88,5.618,5.618,0,0,1,4.363-1.724,5.53,5.53,0,0,1,4.144,1.516,5.736,5.736,0,0,1,1.482,4.189v1.662h-8.1a3.3,3.3,0,0,0,.865,2.28,3.043,3.043,0,0,0,2.269.82,9.418,9.418,0,0,0,2.145-.236,10.733,10.733,0,0,0,2.111-.752v2.65a8.043,8.043,0,0,1-1.92.668A12.108,12.108,0,0,1,50.93.225ZM71.313-9.22h6.514V-.708a18.364,18.364,0,0,1-2.982.724,19.422,19.422,0,0,1-2.858.208A7.232,7.232,0,0,1,66.31-1.96a9.087,9.087,0,0,1-1.96-6.272,8.272,8.272,0,0,1,2.274-6.2,8.635,8.635,0,0,1,6.306-2.224A12.2,12.2,0,0,1,77.8-15.644l-1.157,2.785a8.262,8.262,0,0,0-3.74-.9,4.619,4.619,0,0,0-3.616,1.516,5.881,5.881,0,0,0-1.359,4.077,6.548,6.548,0,0,0,1.095,4.082,3.788,3.788,0,0,0,3.184,1.409A11.262,11.262,0,0,0,74.424-2.9V-6.323H71.313Zm15.352-1.134a2.173,2.173,0,0,0-1.707.691,3.2,3.2,0,0,0-.708,1.96h4.807a2.855,2.855,0,0,0-.663-1.96A2.243,2.243,0,0,0,86.666-10.354ZM87.148.225a6.48,6.48,0,0,1-4.739-1.673A6.336,6.336,0,0,1,80.7-6.188a6.969,6.969,0,0,1,1.578-4.88,5.618,5.618,0,0,1,4.363-1.724,5.53,5.53,0,0,1,4.144,1.516A5.736,5.736,0,0,1,92.27-7.086v1.662h-8.1a3.3,3.3,0,0,0,.865,2.28,3.043,3.043,0,0,0,2.269.82,9.418,9.418,0,0,0,2.145-.236,10.733,10.733,0,0,0,2.111-.752v2.65a8.043,8.043,0,0,1-1.92.668A12.108,12.108,0,0,1,87.148.225ZM106.645,0h-3.425V-7.333a3.522,3.522,0,0,0-.483-2.038,1.757,1.757,0,0,0-1.539-.679,2.313,2.313,0,0,0-2.078.96,5.955,5.955,0,0,0-.64,3.184V0H95.055V-12.556h2.617l.46,1.606h.191A3.62,3.62,0,0,1,99.9-12.325a5.373,5.373,0,0,1,2.285-.466,4.391,4.391,0,0,1,3.324,1.185,4.755,4.755,0,0,1,1.134,3.42Z" transform="translate(67 44)" fill="#fff"/>
    <path id="Path_37884" data-name="Path 37884" d="M6,0H32a6,6,0,0,1,6,6V28a6,6,0,0,1-6,6H6a6,6,0,0,1-6-6V6A6,6,0,0,1,6,0Z" transform="translate(19 19)" fill="#fff"/>
    <path id="Path_37883" data-name="Path 37883" d="M11.641-.615,2.52-4.775V-6.357l9.121-4.365V-8.4l-6.5,2.783v.059l6.5,2.617ZM25.781-4.9,16.66-.742V-3.057l6.523-2.607V-5.7L16.66-8.5V-10.82l9.121,4.336Z" transform="translate(24 42)" fill="#023047"/>
  </g>
</svg>
